23 0 155000000 X
8 7000000 13000000 8p23inversion
6 25000000 34000000 MHC
1 48000000 52000000 LD
2 86000000 100500000 LD
2 134500000 138000000 LD
2 183000000 190000000 LD
3 47500000 50000000 LD
3 83500000 87000000 LD
3 89000000 97500000 LD
5 44500000 50500000 LD
5 98000000 100500000 LD
5 129000000 132000000 LD
5 135500000 138500000 LD
6 25000000 35000000 LD
6 57000000 64000000 LD
6 140000000 142500000 LD
7 55000000 66000000 LD
8 7000000 13000000 LD
8 43000000 50000000 LD
8 112000000 115000000 LD
10 37000000 43000000 LD
11 46000000 57000000 LD
11 87500000 90500000 LD
12 33000000 40000000 LD
12 109500000 112000000 LD
20 32000000 34500000 LD
